[
{
    "model": "accounts.state",
    "pk": 1,
    "fields": {
        "name": "\u062e\u0631\u0627\u0633\u0627\u0646 \u062c\u0646\u0648\u0628\u06cc"
    }
},
{
    "model": "accounts.state",
    "pk": 2,
    "fields": {
        "name": "\u062e\u0631\u0627\u0633\u0627\u0646 \u0631\u0636\u0648\u06cc"
    }
},
{
    "model": "accounts.state",
    "pk": 3,
    "fields": {
        "name": "\u062e\u0631\u0627\u0633\u0627\u0646 \u0634\u0645\u0627\u0644\u06cc"
    }
}
]
