[
{
    "model": "products.product",
    "pk": 55,
    "fields": {
        "title": "\u0645\u062d\u0635\u0648\u0644",
        "code": "HC-2QKQ6NP4",
        "description": "<p>\u0633\u0644\u0627\u0645</p>",
        "slug": "\u0645\u062d\u0635\u0648\u0644",
        "price": "45000.00",
        "image": "products/img/\u0645\u0635\u0646\u0648\u0639\u0627\u062a \u0686\u0631\u0645\u06cc/\u0645\u062d\u0635\u0648\u0644/Screenshot_1.jpg",
        "image2": "products/img/\u0645\u0635\u0646\u0648\u0639\u0627\u062a \u0686\u0631\u0645\u06cc/\u0645\u062d\u0635\u0648\u0644/Screenshot_5.jpg",
        "image3": "products/img/\u0645\u0635\u0646\u0648\u0639\u0627\u062a \u0686\u0631\u0645\u06cc/\u0645\u062d\u0635\u0648\u0644/Screenshot_4.jpg",
        "image4": "products/img/\u0645\u0635\u0646\u0648\u0639\u0627\u062a \u0686\u0631\u0645\u06cc/\u0645\u062d\u0635\u0648\u0644/Screenshot_11.jpg",
        "seller": 1,
        "is_active": false,
        "available_quantity": 1,
        "score": 0,
        "purchaced": 0,
        "dikko_name": "\u0645\u0635\u0646\u0648\u0639\u0627\u062a \u0686\u0631\u0645\u06cc",
        "dikko_slug": "\u0645\u0635\u0646\u0648\u0639\u0627\u062a-\u0686\u0631\u0645\u06cc-\u06350\u06443"
    }
},
{
    "model": "products.product",
    "pk": 56,
    "fields": {
        "title": "\u06a9\u06cc\u0641 \u0686\u0631\u0645",
        "code": "HC-80RIL05J",
        "description": "<p>\u0633\u06cc\u0633\u0631</p>",
        "slug": "\u06a9\u06cc\u0641-\u0686\u0631\u0645",
        "price": "1000000.00",
        "image": "products/img/\u0645\u0635\u0646\u0648\u0639\u0627\u062a \u0686\u0631\u0645\u06cc/\u06a9\u06cc\u0641 \u0686\u0631\u0645/Screenshot_5.jpg",
        "image2": "products/img/\u0645\u0635\u0646\u0648\u0639\u0627\u062a \u0686\u0631\u0645\u06cc/\u06a9\u06cc\u0641 \u0686\u0631\u0645/Screenshot_11.jpg",
        "image3": "products/img/\u0645\u0635\u0646\u0648\u0639\u0627\u062a \u0686\u0631\u0645\u06cc/\u06a9\u06cc\u0641 \u0686\u0631\u0645/Screenshot_3.jpg",
        "image4": "products/img/\u0645\u0635\u0646\u0648\u0639\u0627\u062a \u0686\u0631\u0645\u06cc/\u06a9\u06cc\u0641 \u0686\u0631\u0645/Screenshot_1.jpg",
        "seller": 1,
        "is_active": false,
        "available_quantity": 1,
        "score": 0,
        "purchaced": 0,
        "dikko_name": "\u0645\u0635\u0646\u0648\u0639\u0627\u062a \u0686\u0631\u0645\u06cc",
        "dikko_slug": "\u0645\u0635\u0646\u0648\u0639\u0627\u062a-\u0686\u0631\u0645\u06cc-\u06350\u06443"
    }
},
{
    "model": "products.product",
    "pk": 57,
    "fields": {
        "title": "\u06a9\u06cc\u0641 \u0637\u0631\u062d \u0686\u0631\u0645",
        "code": "HC-FLFEKMAD",
        "description": "<p>\u0686\u0631\u0645</p>",
        "slug": "\u06a9\u06cc\u0641-\u0637\u0631\u062d-\u0686\u0631\u0645",
        "price": "75000.00",
        "image": "products/img/\u0645\u0635\u0646\u0648\u0639\u0627\u062a \u0686\u0631\u0645\u06cc/\u06a9\u06cc\u0641 \u0637\u0631\u062d \u0686\u0631\u0645/Screenshot_5.jpg",
        "image2": "products/img/\u0645\u0635\u0646\u0648\u0639\u0627\u062a \u0686\u0631\u0645\u06cc/\u06a9\u06cc\u0641 \u0637\u0631\u062d \u0686\u0631\u0645/Screenshot_6.jpg",
        "image3": "products/img/\u0645\u0635\u0646\u0648\u0639\u0627\u062a \u0686\u0631\u0645\u06cc/\u06a9\u06cc\u0641 \u0637\u0631\u062d \u0686\u0631\u0645/Screenshot_9.jpg",
        "image4": "products/img/\u0645\u0635\u0646\u0648\u0639\u0627\u062a \u0686\u0631\u0645\u06cc/\u06a9\u06cc\u0641 \u0637\u0631\u062d \u0686\u0631\u0645/Screenshot_11.jpg",
        "seller": 1,
        "is_active": false,
        "available_quantity": 1,
        "score": 0,
        "purchaced": 0,
        "dikko_name": "\u0645\u0635\u0646\u0648\u0639\u0627\u062a \u0686\u0631\u0645\u06cc",
        "dikko_slug": "\u0645\u0635\u0646\u0648\u0639\u0627\u062a-\u0686\u0631\u0645\u06cc-\u06350\u06443"
    }
}
]
